
  {
    "wordMeaning" : [ "order  the day:কোন সময়ের জন্য খুব স্বাভাবিক" ,"clean the stable:জঞ্জাল পরিষ্কার করা, আবর্জনা পরিষ্কার করা" ,"in denial:অস্বীকার, সত্যিকার অবস্থা শিকারে অনীহা, সত্য স্বীকারে অনিহ অবস্থা" ,"odious:ঘৃণ্য, জঘন্য   ( Despicable, contemptible, gruesome, detestable, heinous, vile)" ,"cough up cash:অনিচ্ছাকৃত ভাবে টাকা দেয়া   ( to pay money unwillingly)" ,"avail:কাজে লাগা, উপযোগিতা, সহায়ক হওয়া   ( utility, convenience)" ,"worst hit:সবচে বেশি ভুক্তভোগী" ,"grease:কাউকে ঘুষ দেয়া" ,"malfeasance:কুকর্ম অপরাধ, অবৈধ কাজ   ( sin, offence, crime)" ,"far behind:অনেক পিছিয়ে থাকা, পিছিয়ে পড়া" ,"outright:খোলাখুলি, সোজাসুজি, পুরোপুরি, ডাহা   ( glaring, explicit, avowedly)" ,"acquiescence:মৌন সম্মতি, নীরব বশ্যতা   ( Consent, concur)" ,"rebuffing:প্রত্যাখ্যান করা   ( reject, refuse)" ,"pervasive:পরিব্যাপক, অনুপ্রবেশ প্রবণ, ব্যাপ্তিশীল   ( spread throughout)" ,"impunity:অব্যাহতি, শাস্তি থেকে রেহাই   ( Escape, exemption)" ,"shakedown:কোন প্রতিষ্ঠানের পূনর্গঠনের জন্য বড় ধরনের পরিবর্তন" ,"curb:প্রতিবন্ধক, দমন   ( obstacle, restrain, subdue)" ,"intended:অভিলাষ, লক্ষ, অভিপ্রেত, সংকল্পিত   ( determined, desired)" ,"lost their tooth:শক্তি বা সামর্থ্য হারিয়ে ফেলা" ,"menace:ভয়াবহ বিপদ, ভীতি   ( fright)" ,"multi:pronged" ,"approach:অভিগমন, সমীপবর্তী হওয়া" ,"introspection:আত্ম দর্শন, আত্মনিষ্ঠা   ( Subjectivity)" ,"people:Oriented" ,"festivity:উৎসব" ,"enthusiasm:উদ্দীপনা  ( Spur, endeavor)" ,"applaud:প্রশংসা, সাধুবাদ   ( praise, appreciate)" ,"commendable:প্রশংসনীয়   ( Laudable, Praiseworthy)" ,"pertinent:প্রাসঙ্গিক(relevant, competent)" ,"verseeing:তদারকি,পর্যবেক্ষণ" ,"perception:অনুভব, উপলব্ধি   ( Realization,Understanding )" ,"stemming from:উদ্ভুত, কিছুর কারনে সৃষ্ট" ,"blatant:উদ্ধত, অমার্জিত" ,"unsavoury:অপ্রীতিকর  ( Unpleasant, Repugnant)" ,"lingered:দীর্ঘকাল থাকা" ,"regime:সরকার, আমল" ,"pay and perks:বেতন ভাতা" ,"rungs of the ladder:কোন প্রক্রিয়া বা প্রতিষ্ঠানেরএমনএকটা অবস্থা যেখান থেকে উন্নতি সম্ভব" ,"disgruntlement:অসন্তুষ্টি" ,"incentivising:প্রণোদনা প্রদান, উদ্দীপনা যোগান" ,"consequence:ফলাফল   ( Aftermath, result)" ,"anomalies:বৈসাদৃশ্য, অসামঞ্জস্যতা  ( obliquity, irregularity)" ,"accountability:জবাবদিহিতা বিশ্বাসযোগ্যতা  ( Credibility)" ,"errant:অসভ্য, পথভ্রষ্ট   ( Savage)" ,"stereotyped:বাঁধাধরা" ,"divulged:বেফাঁস" ,"surveillance:নজরদারি" ,"extrortion:চাঁদাবাজি, জোরপূর্বক আদায়" ,"extrajudicial:আইনবহির্ভূত" ,"overshadowed:ম্লান করা   (Obscure)" ,"evoke:আহবান করা" ,"resentment:রাগ, বিরক্তি"  ]
   }
